<svg width="33" height="40" viewBox="0 0 33 40" fill="none" xmlns="http://www.w3.org/2000/svg">
<path d="M16.9969 0V29.7256H24.0928V9.06308L16.9969 0Z" fill="white"/>
<path d="M25.5179 10.3183V19.2359H32.5L25.5179 10.3183Z" fill="white"/>
<path d="M15.591 9.66265V40L8.49507 30.9369L8.49507 9.66265L15.591 9.66265Z" fill="white"/>
<path d="M7.08301 9.66265L7.08301 18.7093L0 9.66265H7.08301Z" fill="white"/>
</svg>
